01.01.2025,Yeni Yıl Tatili
29.03.2025,Ramazan Bayramı Arifesi
30.03.2025,Ramazan Bayramı
31.03.2025,Ramazan Bayramı
01.04.2025,Ramazan Bayramı
23.04.2025,Ulusal Egemenlik ve Çocuk Bayramı
01.05.2025,Emek ve Dayanışma Günü
19.05.2025,Atatürk’ü Anma Gençlik ve Spor Bayramı
05.06.2025,Kurban Bayramı Arifesi
06.06.2025,Kurban Bayramı
07.06.2025,Kurban Bayramı
08.06.2025,Kurban Bayramı
09.06.2025,Kurban Bayramı
15.07.2025,Demokrasi ve Milli Birlik Günü
30.08.2025,Zafer Bayramı
28.10.2025,Cumhuriyet Bayramı Öncesi
29.10.2025,Cumhuriyet Bayramı
01.01.2024,Yeni Yıl Tatili
09.04.2024,Ramazan Bayramı Arifesi
10.04.2024,Ramazan Bayramı
11.04.2024,Ramazan Bayramı
12.04.2024,Ramazan Bayramı
23.04.2024,Ulusal Egemenlik ve Çocuk Bayramı
01.05.2024,Emek ve Dayanışma Günü
19.05.2024,Atatürk’ü Anma Gençlik ve Spor Bayramı
15.06.2024,Kurban Bayramı Arifesi
16.06.2024,Kurban Bayramı
17.06.2024,Kurban Bayramı
18.06.2024,Kurban Bayramı
19.06.2024,Kurban Bayramı
20.06.2024,Kurban Bayramı Birleştirme
21.06.2024,Kurban Bayramı Birleştirme
15.07.2024,Demokrasi ve Milli Birlik Günü
30.08.2024,Zafer Bayramı
28.10.2024,Cumhuriyet Bayramı Öncesi
29.10.2024,Cumhuriyet Bayramı
01.01.2023,Yeni Yıl Tatili
20.04.2023,Ramazan Bayramı Arifesi
21.04.2023,Ramazan Bayramı
22.04.2023,Ramazan Bayramı
23.04.2023,Ramazan Bayramı,Ulusal Egemenlik ve Çocuk Bayramı
01.05.2023,Emek ve Dayanışma Günü
19.05.2023,Atatürk’ü Anma Gençlik ve Spor Bayramı
27.06.2023,Kurban Bayramı Arifesi
28.06.2023,Kurban Bayramı
29.06.2023,Kurban Bayramı
30.06.2023,Kurban Bayramı
01.07.2023,Kurban Bayramı
15.07.2023,Demokrasi ve Milli Birlik Günü
30.08.2023,Zafer Bayramı
28.10.2023,Cumhuriyet Bayramı Öncesi
29.10.2023,Cumhuriyet Bayramı
1.01.2022,Yeni Yıl Tatili
23.04.2022,Ulusal Egemenlik ve Çocuk Bayramı
1.05.2022,Emek ve Dayanışma Günü ve Ramazan Bayramı Arifesi
2.05.2022,Ramazan Bayramı
3.05.2022,Ramazan Bayramı
4.05.2022,Ramazan Bayramı
19.05.2022,Atatürk’ü Anma Gençlik ve Spor Bayramı
8.07.2022,Kurban Bayramı Arifesi
9.07.2022,Kurban Bayramı
10.07.2022,Kurban Bayramı
11.07.2022,Kurban Bayramı
12.07.2022,Kurban Bayramı
15.07.2022,Demokrasi ve Milli Birlik Günü
30.08.2022,Zafer Bayramı
28.10.2022,Cumhuriyet Bayramı
29.10.2022,Cumhuriyet Bayramı
01.01.2021,Yeni Yıl Tatili
10.04.2021,Kovid19
11.04.2021,Kovid19
12.04.2021,Kovid19
23.04.2021,Ulusal Egemenlik ve Çocuk Bayramı
29.04.2021,Kovid19
30.04.2021,Kovid19
01.05.2021,Emek ve Dayanışma Günü
02.05.2021,Kovid19
03.05.2021,Kovid19
04.05.2021,Kovid19
05.05.2021,Kovid19
06.05.2021,Kovid19
07.05.2021,Kovid19
08.05.2021,Kovid19
09.05.2021,Kovid19
10.05.2021,Kovid19
11.05.2021,Kovid19
12.05.2021,Ramazan Bayramı Arifesi
13.05.2021,Ramazan Bayramı
14.05.2021,Ramazan Bayramı
15.05.2021,Ramazan Bayramı
16.05.2021,Kovid19
17.05.2021,Kovid19
19.05.2021,Atatürk’ü Anma Gençlik ve Spor Bayramı
15.07.2021,Demokrasi ve Milli Birlik Günü
16.07.2021,Birleşme
17.07.2021,Birleşme
18.07.2021,Birleşme
19.07.2021,Kurban Bayramı Arifesi
20.07.2021,Kurban Bayramı
21.07.2021,Kurban Bayramı
22.07.2021,Kurban Bayramı
23.07.2021,Kurban Bayramı
30.08.2021,Zafer Bayramı
28.10.2021,Cumhuriyet Bayramı
29.10.2021,Cumhuriyet Bayramı
01.01.2020,Yeni Yıl Tatili
23.04.2020,Ulusal Egemenlik ve Çocuk Bayramı
01.05.2020,Emek ve Dayanışma Günü
19.05.2020,Atatürk’ü Anma Gençlik ve Spor Bayramı
23.05.2020,Ramazan Bayramı Arifesi
24.05.2020,Ramazan Bayramı
25.05.2020,Ramazan Bayramı
26.05.2020,Ramazan Bayramı
15.07.2020,Demokrasi ve Milli Birlik Günü
30.07.2020,Kurban Bayramı Arifesi
31.07.2020,Kurban Bayramı
01.08.2020,Kurban Bayramı
02.08.2020,Kurban Bayramı
03.08.2020,Kurban Bayramı
30.08.2020,Zafer Bayramı
28.10.2020,Cumhuriyet Bayramı
29.10.2020,Cumhuriyet Bayramı
01.01.2019,Yeni Yıl Tatili
23.04.2019,Ulusal Egemenlik ve Çocuk Bayramı
01.05.2019,Emek ve Dayanışma Günü
19.05.2019,Atatürk’ü Anma Gençlik ve Spor Bayramı
03.06.2019,Ramazan Bayramı Arifesi
04.06.2019,Ramazan Bayramı
05.06.2019,Ramazan Bayramı
06.06.2019,Ramazan Bayramı
15.07.2019,Demokrasi ve Milli Birlik Günü
10.08.2019,Kurban Bayramı Arifesi
11.08.2019,Kurban Bayramı
12.08.2019,Kurban Bayramı
13.08.2019,Kurban Bayramı
14.08.2019,Kurban Bayramı
30.08.2019,Zafer Bayramı
28.10.2019,Cumhuriyet Bayramı
29.10.2019,Cumhuriyet Bayramı
01.01.2018,Yeni Yıl Tatili
23.04.2018,Ulusal Egemenlik ve Çocuk Bayramı
01.05.2018,Emek ve Dayanışma Günü
19.05.2018,Atatürk’ü Anma Gençlik ve Spor Bayramı
14.06.2018,Ramazan Bayramı Arifesi
15.06.2018,Ramazan Bayramı
16.06.2018,Ramazan Bayramı
17.06.2018,Ramazan Bayramı
18.06.2018,Ramazan Bayramı birleşme
15.07.2018,Demokrasi ve Milli Birlik Günü
20.08.2018,Kurban Bayramı Arifesi
21.08.2018,Kurban Bayramı
22.08.2018,Kurban Bayramı
23.08.2018,Kurban Bayramı
24.08.2018,Kurban Bayramı
30.08.2018,Zafer Bayramı
28.10.2018,Cumhuriyet Bayramı
29.10.2018,Cumhuriyet Bayramı
01.01.2017,Yeni Yıl Tatili
23.04.2017,Ulusal Egemenlik ve Çocuk Bayramı
01.05.2017,Emek ve Dayanışma Günü
19.05.2017,Atatürk'ü Anma Gençlik ve Spor Bayramı
24.06.2017,Ramazan Bayramı Arifesi
25.06.2017,Ramazan Bayramı
26.06.2017,Ramazan Bayramı
27.06.2017,Ramazan Bayramı
15.07.2017,Demokrasi ve Milli Birlik Günü
30.08.2017,Zafer Bayramı
31.08.2017,Kurban Bayramı Arifesi
01.09.2017,Kurban Bayramı
02.09.2017,Kurban Bayramı
03.09.2017,Kurban Bayramı
04.09.2017,Kurban Bayramı
28.10.2017,Cumhuriyet Bayramı Arifesi
29.10.2017,Cumhuriyet Bayramı
01.01.2016,Yeni Yıl Tatili
23.04.2016,Ulusal Egemenlik ve Çocuk Bayramı
01.05.2016,Emek ve Dayanışma Günü
19.05.2016,Atatürk'ü Anma Gençlik ve Spor Bayramı
04.07.2016,Ramazan Bayramı Arifesi
05.07.2016,Ramazan Bayramı
06.07.2016,Ramazan Bayramı
07.07.2016,Ramazan Bayramı
30.08.2016,Zafer Bayramı
11.09.2016,Kurban Bayramı Arifesi
12.09.2016,Kurban Bayramı
13.09.2016,Kurban Bayramı
14.09.2016,Kurban Bayramı
15.09.2016,Kurban Bayramı
28.10.2016,Cumhuriyet Bayramı Arifesi
29.10.2016,Cumhuriyet Bayram
01.01.2015,Yeni Yıl Tatili
23.04.2015,Ulusal Egemenlik ve Çocuk Bayramı
01.05.2015,Emek ve Dayanışma Günü
19.05.2015,Atatürk'ü Anma Gençlik ve Spor Bayramı
16.07.2015,Ramazan Bayramı Arifesi
17.07.2015,Ramazan Bayramı
18.07.2015,Ramazan Bayramı
19.07.2015,Ramazan Bayramı
30.08.2015,Zafer Bayramı
23.09.2015,Kurban Bayramı Arifesi
24.09.2015,Kurban Bayramı
25.09.2015,Kurban Bayramı
26.09.2015,Kurban Bayramı
27.09.2015,Kurban Bayramı
28.10.2015,Cumhuriyet Bayramı Arifesi
29.10.2015,Cumhuriyet Bayramı
01.01.2014,Yeni Yıl Tatili
23.04.2014,Ulusal Egemenlik ve Çocuk Bayramı
01.05.2014,Emek ve Dayanışma Günü
19.05.2014,Atatürk'ü Anma Gençlik ve Spor Bayramı
27.07.2014,Ramazan Bayramı Arifesi
28.07.2014,Ramazan Bayramı
29.07.2014,Ramazan Bayramı
30.07.2014,Ramazan Bayramı
30.08.2014,Zafer Bayramı
03.10.2014,Ramazan Bayramı Arifesi
04.10.2014,Kurban Bayramı
05.10.2014,Kurban Bayramı
06.10.2014,Kurban Bayramı
07.10.2014,Kurban Bayramı
28.10.2014,Cumhuriyet Bayramı Arifesi
29.10.2014,Cumhuriyet Bayramı
